CX204Lab 01.sim/sim_1/behav/xsim/simulate.log
Vivado Simulator 2019.1
Time resolution is 1 ps
WARNING: File instruction_mem.bin referenced on /home/it/CX204Lab 01/CX204Lab 01.srcs/sources_1/new/instruction_memory.sv at line 35 cannot be opened for reading. Please ensure that this file is available in the current working directory.
WARNING: File rom_image_hex.mem referenced on /home/it/CX204Lab 01/CX204Lab 01.srcs/sources_1/new/register_file.sv at line 42 cannot be opened for reading. Please ensure that this file is available in the current working directory.
Time: 0 | PC: 0 | Instruction: xxxxxxxx | ALU Result: 0
Time: 15000 | PC: 1 | Instruction: xxxxxxxx | ALU Result: 0
Time: 25000 | PC: 2 | Instruction: xxxxxxxx | ALU Result: 0
Time: 35000 | PC: 3 | Instruction: xxxxxxxx | ALU Result: 0
Time: 45000 | PC: 4 | Instruction: xxxxxxxx | ALU Result: 0
Time: 55000 | PC: 5 | Instruction: xxxxxxxx | ALU Result: 0
Time: 65000 | PC: 6 | Instruction: xxxxxxxx | ALU Result: 0
Time: 75000 | PC: 7 | Instruction: xxxxxxxx | ALU Result: 0
Time: 85000 | PC: 8 | Instruction: xxxxxxxx | ALU Result: 0
Time: 95000 | PC: 9 | Instruction: xxxxxxxx | ALU Result: 0
Time: 105000 | PC: 10 | Instruction: xxxxxxxx | ALU Result: 0
Time: 115000 | PC: 11 | Instruction: xxxxxxxx | ALU Result: 0
Time: 125000 | PC: 12 | Instruction: xxxxxxxx | ALU Result: 0
Time: 135000 | PC: 13 | Instruction: xxxxxxxx | ALU Result: 0
Time: 145000 | PC: 14 | Instruction: xxxxxxxx | ALU Result: 0
Time: 155000 | PC: 15 | Instruction: xxxxxxxx | ALU Result: 0
Time: 165000 | PC: 0 | Instruction: xxxxxxxx | ALU Result: 0
Time: 175000 | PC: 1 | Instruction: xxxxxxxx | ALU Result: 0
Time: 185000 | PC: 2 | Instruction: xxxxxxxx | ALU Result: 0
Time: 195000 | PC: 3 | Instruction: xxxxxxxx | ALU Result: 0
Time: 205000 | PC: 4 | Instruction: xxxxxxxx | ALU Result: 0
$stop called at time : 210 ns : File "/home/it/CX204Lab 01/CX204Lab 01.srcs/sim_1/new/tb_top.sv" Line 57
